{
  "count": 1281,
  "next": "https://pokeapi.co/api/v2/pokemon?offset=18&limit=9",
  "previous": "https://pokeapi.co/api/v2/pokemon?offset=0&limit=9",
  "results": [
    { "name": "caterpie", "url": "https://pokeapi.co/api/v2/pokemon/10/" },
    { "name": "metapod", "url": "https://pokeapi.co/api/v2/pokemon/11/" },
    { "name": "butterfree", "url": "https://pokeapi.co/api/v2/pokemon/12/" },
    { "name": "weedle", "url": "https://pokeapi.co/api/v2/pokemon/13/" },
    { "name": "kakuna", "url": "https://pokeapi.co/api/v2/pokemon/14/" },
    { "name": "beedrill", "url": "https://pokeapi.co/api/v2/pokemon/15/" },
    { "name": "pidgey", "url": "https://pokeapi.co/api/v2/pokemon/16/" },
    { "name": "pidgeotto", "url": "https://pokeapi.co/api/v2/pokemon/17/" },
    { "name": "pidgeot", "url": "https://pokeapi.co/api/v2/pokemon/18/" }
  ]
}
